1719 695 182
3615 66 217
2736 379 209
156 558 144
1691 502 182
3825 120 238
194 376 144
730 636 171
993 529 179
2219 290 182
605 247 144
1582 159 182
1719 353 182
686 279 145
58 457 144
700 651 145
541 552 137
848 609 171
1217 76 182
2464 201 209
884 278 179
2288 696 183
255 37 128
2694 539 209
3907 336 238
1244 688 182
921 498 179
1615 449 182
2044 265 182
3018 607 217
3603 270 217
833 128 171
740 386 171
693 213 145
3250 265 217
2695 102 209
2838 604 209
2979 140 217
2660 319 209
2570 256 209
268 95 128
215 30 125
1540 97 182
2775 446 209
619 524 137
1467 396 182
2053 133 182
2526 210 209
4036 392 238
2411 652 183
1399 147 182
1168 101 182
4222 391 238
3957 399 238
316 519 144
1668 640 182
3834 282 238
1028 672 179
873 383 179
3442 109 217
236 572 144
3410 247 217
1207 687 182
4092 348 238
254 374 144
2619 566 209
4213 114 238
4294 584 238
447 118 144
544 255 144
445 323 144
2177 556 182
3805 30 238
3203 568 217
2123 588 182
2376 259 183
3708 453 217
3223 640 217
146 390 144
3943 307 238
1797 59 182
346 86 144
234 222 128
1287 589 182
295 680 145
2556 534 209
3391 639 217
4276 468 238
1054 350 179
2109 179 182
4062 309 238
3878 650 238
1633 468 182
2205 226 182
1930 52 182
2864 593 209
4143 494 238
3650 356 217
1039 295 179
847 400 171
102 370 144
4320 468 238
2988 485 217
1307 461 182
2545 681 209
242 40 128
1066 579 179
3814 319 238
4170 337 238
4133 407 238
3892 569 238
494 655 145
3782 281 238
631 39 144
23 377 144
2491 94 209
350 512 142
1492 600 182
2367 181 183
1359 239 182
2997 72 217
1058 374 179
16 641 144
1448 578 182
809 672 171
1731 462 182
2475 292 209
4160 378 238
3777 560 238
2620 136 209
2489 323 209
1658 289 182
496 323 144
558 617 132
4339 98 238
423 407 134
2926 324 217
3356 700 217
2175 524 182
1288 466 182
50 464 144
1707 581 182
803 663 171
1804 299 182
2980 199 217
3377 93 217
1143 309 179
2151 513 182
2570 367 209
2177 98 182
1230 67 182
2028 334 182
1877 533 182
1621 259 182
1501 347 182
1403 51 182
3395 678 217
41 128 119
919 663 179
1041 59 179
175 519 144
2424 552 183
3266 461 217
3647 236 217
4200 509 238
3081 561 217
3929 306 238
3980 265 238
3900 525 238
1333 252 182
2 46 112
920 81 179
4213 492 238
1988 234 182
19 548 144
4350 122 238
3294 180 217
2696 142 209
132 26 122
4146 59 238
1518 417 182
1525 555 182
3840 285 238
2845 385 209
2333 186 183
2456 529 183
1007 173 179
2523 155 209
2391 393 183
1939 477 182
2742 75 209
1727 491 182
1847 468 182
3298 506 217
1987 440 182
2839 73 209
1030 225 179
460 108 144
3170 150 217
2004 421 182
